{
  "name": "Biología I",
  "image": "portada.jpg",
  "temas": [
    {
      "tema": "Introducción",
      "subtemas": [     
        {
          "tema": "Bloque IV",
          "url": "index.html"
        },
        {
          "tema": "Transversalidad de los aprendizajes",
          "url": "aprendizajes.html"
        },
        {
          "tema": "Integración",
          "url": "integracion.html"
        },
        {
          "tema": "Mis intereses",
          "url": "mis_intereses.html"
        },
        {
          "tema": "Evaluación diagnóstica",
          "url": "mi_entorno_evaluacion_diagnostica.html"
        }
      ]
    },
    {
      "tema": "Estructura del ADN",
      "subtemas": [
        {
          "tema": "La función del ADN y el ARN",
          "url": "tema1.0.0.html"
        },
        {
          "tema": "La estructura del ADN y el ARN",
          "url": "tema1.1.0.html"
        },
        {
          "tema": "¿Cómo se procesa la información genética?",
          "url": "tema1.2.0.html"
        },
        {
          "tema": "Replicación",
          "url": "tema1.3.0.html"
        },
        {
          "tema": "Actividad 1",
          "url": "tema1.3.0A1.html"
        },
        {
          "tema": "Transcripción",
          "url": "tema1.4.0.html"
        },
        {
          "tema": "Actividad 2",
          "url": "tema1.4.0A2.html"
        },
        {
          "tema": "Traducción (síntesis de proteínas)",
          "url": "tema1.5.0.html"
        },
        {
          "tema": "Actividad 3",
          "url": "tema1.5.0A3.html"
        },
        {
          "tema": "Código genético",
          "url": "tema1.6.0.html"
        },
        {
          "tema": "Actividad 4",
          "url": "tema1.6.0A4.html"
        },
        {
          "tema": "Integración",
          "url": "tema1.6.0_integracion.html"
        },
        {
          "tema": "Actividad DHS",
          "url": "tema1.6.0_dhs.html"
        }

      ]
    },
    {
      "tema": "Técnicas del ADN recombinante (ingeniería genética)",
      "subtemas": [
        {
          "tema": "Técnicas del ADN recombinante (ingeniería genética)",
          "url": "tema2.0.0.html"
        },
        {
          "tema": "Transgénicos",
          "url": "tema2.1.0.html"
        },
        {
          "tema": "Actividad 5",
          "url": "tema2.1.0A5.html"
        },
        {
          "tema": "Pruebas de ADN",
          "url": "tema2.2.0.html"
        },
        {
          "tema": "Actividad 6",
          "url": "tema2.2.0A6.html"
        },
        {
          "tema": "Vacunas",
          "url": "tema2.3.0.html"
        },
        {
          "tema": "Fomento a la lectura",
          "url": "tema2.3.0_lectura.html"
        },
        {
          "tema": "Medicina Genómica",
          "url": "tema2.4.0.html"
        },
        {
          "tema": "Actividad 7",
          "url": "tema2.4.0A7.html"
        },
        {
          "tema": "Pruebas de diagnóstico",
          "url": "tema2.5.0.html"
        },
        {
          "tema": "Actividad 8",
          "url": "tema2.5.0A8.html"
        },
        {
          "tema": "PCR (reacción en cadena de la polimerasa)",
          "url": "tema2.6.0.html"
        },
        {
          "tema": "Actividad 9",
          "url": "tema2.6.0A9.html"
        },
        {
          "tema": "Biorremediación",
          "url": "tema2.7.0.html"
        },
        {
          "tema": "Actividad 10",
          "url": "tema2.7.0A10.html"
        },
        {
          "tema": "Nuevas tecnologías",
          "url": "tema2.8.0.html"
        },
        {
          "tema": "Actividad 11",
          "url": "tema2.8.0A11.html"
        },
        {
          "tema": "Práctica experimental",
          "url": "tema2.8.0_practica_experimental.html"
        }

      ]
    },
    {
      "tema": "Bioética",
      "subtemas": [
        {
          "tema": "Ventajas y desventajas",
          "url": "tema3.0.0.html"
        },
        {
          "tema": "Actividad 12",
          "url": "tema3.0.0_A12.html"
        },
        {
          "tema": "Actividad 13",
          "url": "tema3.0.0_A13.html"
        },
        {
          "tema": "Actividad transversal",
          "url": "tema3.0.0_transversal.html"
        },
        {
          "tema": "Evaluación formativa",
          "url": "tema3.0.0_evaluacion_formativa.html"
        },
        {
          "tema": "Integración",
          "url": "tema3.0.0_integracion.html"
        },
        {
          "tema": "Oriéntate",
          "url": "tema3.0.0_orientate.html"
        },
        {
          "tema": "Evaluación sumativa",
          "url": "tema3.0.0_evaluacion_sumativa.html"
        },
        {
          "tema": "Prueba tipo PLANEA",
          "url": "tema3.0.0_prueba_planea.html"
        }

      ]
    }  
  ]
}
